%YAML 1.1
%TAG !u! tag:unity3d.com,2011:
--- !u!21 &2100000
Material:
  serializedVersion: 6
  m_ObjectHideFlags: 0
  m_PrefabParentObject: {fileID: 0}
  m_PrefabInternal: {fileID: 0}
  m_Name: "FxFireVertGrad"
  m_Shader: {fileID: 10720, guid: 0000000000000000f000000000000000, type: 0}
  m_ShaderKeywords: "F_DIFFUSE F_RIM"
  m_LightmapFlags: 4
  m_EnableInstancingVariants: 0
  m_CustomRenderQueue: 2000
  stringTagMap: {}
  disabledShaderPasses: []
  m_SavedProperties:
    serializedVersion: 3
    m_TexEnvs:
    - _MainTex:
        m_Texture: {fileID: 2800000, guid: 07a4794368fa4d51a7177d3f58b03fcf, type: 3}
        m_Scale: {x: 1, y: 1}
        m_Offset: {x: 0, y: 0}
    m_Floats:
    - _BumpScale: 1
    - _Cutoff: 0.5
    - _DetailNormalMapScale: 1
    - _DstBlend: 0
    - _EmissionIntensity: 1
    - _F_diffuse: 1
    - _F_emission: 0
    - _F_gradient: 0
    - _F_reflection: 0
    - _F_rim: 1
    - _F_specular: 0
    - _GlossMapScale: 1
    - _Glossiness: 0.438
    - _GlossyReflections: 1
    - _Metallic: 0
    - _Mode: 0
    - _OcclusionStrength: 1
    - _Parallax: 0.02
    - _RimPower: 3.75
    - _SmoothnessTextureChannel: 0
    - _SpecIntensity: 0.125
    - _SpecShininess: 0.0125
    - _SpecularHighlights: 1
    - _SrcBlend: 1
    - _UVSec: 0
    - _ZWrite: 1
    m_Colors:
    - _Color: {r: 0.2714489, g: 0.5283019, b: 0.2367391, a: 1}
    - _EmissionColor: {r: 0, g: 0, b: 0, a: 1}
    - _GradientLimits: {r: 8.846547, g: 13.01346, b: 0, a: 0}
    - _MainColor: {r: 1, g: 1, b: 1, a: 1}
    - _RimColor: {r: 0.3102273, g: 0.2895454, b: 0.455, a: 1}
