%YAML 1.1
%TAG !u! tag:unity3d.com,2011:
--- !u!21 &2100000
Material:
  serializedVersion: 6
  m_ObjectHideFlags: 0
  m_PrefabParentObject: {fileID: 0}
  m_PrefabInternal: {fileID: 0}
  m_Name: "FxShineBlur256Add"
  m_Shader: {fileID: 10720, guid: 0000000000000000f000000000000000, type: 0}
  m_ShaderKeywords: "_EMISSION"
  m_LightmapFlags: 1
  m_EnableInstancingVariants: 0
  m_CustomRenderQueue: -1
  stringTagMap: {}
  disabledShaderPasses: []
  m_SavedProperties:
    serializedVersion: 3
    m_TexEnvs:
    - _MainTex:
        m_Texture: {fileID: 2800000, guid: 668eb96ec76147f0aa72fc3e651f5501, type: 3}
        m_Scale: {x: 1, y: 1}
        m_Offset: {x: 0, y: 0}
    m_Floats:
    - _0_: 0.1
    - _1_: 100
    - _2_diffuse: 10
    - _4_: 0.603
    - _BumpScale: 1
    - _Cutoff: 0.5
    - _DetailNormalMapScale: 1
    - _DstBlend: 0
    - _GlossMapScale: 1
    - _Glossiness: 0.5
    - _GlossyReflections: 1
    - _InvFade: 1
    - _Metallic: 0
    - _Mode: 0
    - _OcclusionStrength: 1
    - _Parallax: 0.02
    - _SmoothnessTextureChannel: 0
    - _SpecularHighlights: 1
    - _SrcBlend: 1
    - _UVSec: 0
    - _ZWrite: 1
    - _node_9983: 0
    m_Colors:
    - _3_color: {r: 0.8, g: 0.3, b: 0.1, a: 1}
    - _Color: {r: 1, g: 1, b: 1, a: 1}
    - _EmissionColor: {r: 0, g: 0, b: 0, a: 1}
    - _TieTu_Colo: {r: 0.5, g: 0.5, b: 0.5, a: 1}
    - _TintColor: {r: 1, g: 1, b: 1, a: 1}
    - _node_1023: {r: 0.5, g: 0.5, b: 0.5, a: 1}
    - _node_4628: {r: 0.3088235, g: 0.6281947, b: 1, a: 1}
    - _node_5287: {r: 1, g: 1, b: 1, a: 1}
