%YAML 1.1
%TAG !u! tag:unity3d.com,2011:
--- !u!21 &2100000
Material:
  serializedVersion: 6
  m_ObjectHideFlags: 0
  m_PrefabParentObject: {fileID: 0}
  m_PrefabInternal: {fileID: 0}
  m_Name: "HelmetMotorcycle"
  m_Shader: {fileID: 46, guid: 0000000000000000f000000000000000, type: 0}
  m_ShaderKeywords: "SF_COLOR_LERP SF_DIFFUSE SF_DIFFUSE_RAMP SF_MAIN_TEXTURE SF_REFLECTION
SF_RIM_LIGHT SF_SPECULAR"
  m_LightmapFlags: 4
  m_EnableInstancingVariants: 0
  m_CustomRenderQueue: -1
  stringTagMap: {}
  disabledShaderPasses: []
  m_SavedProperties:
    serializedVersion: 3
    m_TexEnvs:
    - _EmissionMap:
        m_Texture: {fileID: 0}
        m_Scale: {x: 1, y: 1}
        m_Offset: {x: 0, y: 0}
    - _MainColorRampTex:
        m_Texture: {fileID: 2800000, guid: 5e79c44f6b754a7ba36a4dbcecd32674, type: 3}
        m_Scale: {x: 1, y: 1}
        m_Offset: {x: 0, y: 0}
    - _MainTex:
        m_Texture: {fileID: 2800000, guid: 91ded3b2a5b944679cc2c6a2a1b9fd30, type: 3}
        m_Scale: {x: 1, y: 1}
        m_Offset: {x: 0, y: 0}
    - _ReflectionCube:
        m_Texture: {fileID: 8900000, guid: ea0efb8ca67b49c38eb48d9d294b9f19, type: 3}
        m_Scale: {x: 1, y: 1}
        m_Offset: {x: 0, y: 0}
    - _ReflectionTex:
        m_Texture: {fileID: 0}
        m_Scale: {x: 1, y: 1}
        m_Offset: {x: 0, y: 0}
    - _SpecTex:
        m_Texture: {fileID: 0}
        m_Scale: {x: 1, y: 1}
        m_Offset: {x: 0, y: 0}
    m_Floats:
    - _BumpScale: 1
    - _Cutoff: 0.5
    - _DetailNormalMapScale: 1
    - _DstBlend: 0
    - _EmissionIntensity: 1
    - _GlossMapScale: 1
    - _Glossiness: 0.5
    - _GlossyReflections: 1
    - _LerpValue: 0
    - _Metallic: 0
    - _Mode: 0
    - _OcclusionStrength: 1
    - _Parallax: 0.02
    - _RimLightPower: 2.78
    - _SF_COLOR_LERP: 1
    - _SF_DIFFUSE: 1
    - _SF_DIFFUSE_RAMP: 1
    - _SF_EMISSION: 0
    - _SF_MAIN_TEXTURE: 1
    - _SF_REFLECTION: 1
    - _SF_RIM_LIGHT: 1
    - _SF_SPECULAR: 1
    - _SmoothnessTextureChannel: 0
    - _SpecShininess: 0.01
    - _SpecularHighlights: 1
    - _SrcBlend: 1
    - _UVSec: 0
    - _ZWrite: 1
    m_Colors:
    - _Color: {r: 1, g: 1, b: 1, a: 1}
    - _ColorToLerp: {r: 1, g: 0, b: 0, a: 1}
    - _EmissionColor: {r: 0, g: 0, b: 0, a: 1}
    - _MainColor: {r: 1, g: 1, b: 1, a: 1}
    - _RimColor: {r: 0.490566, g: 0.4017668, b: 0.256853, a: 1}
    - _ShadowColor: {r: 0.7769669, g: 0.740922, b: 0.8490566, a: 1}
    - _SpecIntensity: {r: 0.5188679, g: 0.3659868, b: 0.2667764, a: 1}
