%YAML 1.1
%TAG !u! tag:unity3d.com,2011:
--- !u!90 &9000000
Avatar:
  m_ObjectHideFlags: 0
  m_PrefabParentObject: {fileID: 0}
  m_PrefabInternal: {fileID: 0}
  m_Name: "ChestAnimationAvatar"
  m_AvatarSize: 2292
  m_Avatar:
    serializedVersion: 3
    m_AvatarSkeleton:
      data:
        m_Node:
        - m_ParentId: -1
          m_AxesId: -1
        - m_ParentId: 0
          m_AxesId: -1
        - m_ParentId: 0
          m_AxesId: -1
        - m_ParentId: 2
          m_AxesId: -1
        - m_ParentId: 3
          m_AxesId: -1
        - m_ParentId: 4
          m_AxesId: -1
        - m_ParentId: 5
          m_AxesId: -1
        - m_ParentId: 6
          m_AxesId: -1
        - m_ParentId: 5
          m_AxesId: -1
        - m_ParentId: 5
          m_AxesId: -1
        - m_ParentId: 9
          m_AxesId: -1
        - m_ParentId: 5
          m_AxesId: -1
        - m_ParentId: 5
          m_AxesId: -1
        - m_ParentId: 12
          m_AxesId: -1
        - m_ParentId: 12
          m_AxesId: -1
        - m_ParentId: 12
          m_AxesId: -1
        - m_ParentId: 12
          m_AxesId: -1
        m_ID: 00000000b39c853ae5693d76c4f0b63be52a3f24c2388a255a0611bd8a92cad61737d2de393b1e47f08cf445740add24be7f50b0a5570f1119079a51c66a00eb7a3a95ab
        m_AxesArray: []
    m_AvatarSkeletonPose:
      data:
        m_X:
        - t: {x: 0, y: 0, z: 0}
          q: {x: 0, y: 0, z: 0, w: 1}
          s: {x: 1, y: 1, z: 1}
        - t: {x: 0, y: 0, z: 0}
          q: {x: 0, y: 0, z: 0, w: 1}
          s: {x: 1, y: 1, z: 1}
        - t: {x: 0, y: 0, z: 0}
          q: {x: -0.7071068, y: 0, z: 0, w: 0.7071067}
          s: {x: 1, y: 1, z: 1}
        - t: {x: 0, y: 0, z: 0}
          q: {x: 1, y: 8.510922E-15, z: 1.947072E-07, w: -4.371139E-08}
          s: {x: 1, y: 1, z: 1}
        - t: {x: 0.001699436, y: 1.338551E-11, z: -1.432705}
          q: {x: 0, y: 0.03219121, z: 0, w: 0.9994817}
          s: {x: 0.9999999, y: 1, z: 0.9999999}
        - t: {x: -7.841736E-07, y: 8.673617E-19, z: 1.404365}
          q: {x: -0.7071068, y: -3.275172E-08, z: -3.676433E-07, w: 0.7071067}
          s: {x: 1, y: 1, z: 1}
        - t: {x: 1.313182, y: 1.167273, z: 6.9515E-07}
          q: {x: 0.7071068, y: -9.48304E-08, z: 3.266381E-07, w: 0.7071067}
          s: {x: 1, y: 1, z: 1}
        - t: {x: 0.2070967, y: 5.960463E-08, z: 0.183563}
          q: {x: 0.7042007, y: 0.09924445, z: -0.09915466, w: 0.6960031}
          s: {x: 0.9999999, y: 0.9999999, z: 0.9999999}
        - t: {x: 1.313182, y: -0.03272737, z: 6.9515E-07}
          q: {x: 0.7071068, y: -1.053668E-08, z: 4.109318E-07, w: 0.7071067}
          s: {x: 1, y: 1, z: 1}
        - t: {x: -1.313182, y: 1.167273, z: -1.016405E-06}
          q: {x: 0.7071068, y: -3.266381E-07, z: 9.483047E-08, w: 0.7071067}
          s: {x: 1, y: 1, z: 1}
        - t: {x: -0.2070966, y: 5.96046E-08, z: 0.183563}
          q: {x: 0.7046267, y: -0.09918364, z: 0.09921546, w: 0.6955717}
          s: {x: 1, y: 1, z: 1}
        - t: {x: -1.313182, y: -0.03272736, z: -1.016405E-06}
          q: {x: 0.7071068, y: -4.13566E-07, z: 7.902608E-09, w: 0.7071067}
          s: {x: 1, y: 1, z: 1}
        - t: {x: -8.307397E-07, y: 1.41673, z: 1.021363}
          q: {x: 8.78895E-16, y: -8.992806E-15, z: 7.903733E-30, w: 1}
          s: {x: 1, y: 1, z: 1}
        - t: {x: 1.313182, y: 0.7361345, z: -1.021363}
          q: {x: 0.7071068, y: 3.161014E-08, z: 5.373725E-07, w: 0.7071067}
          s: {x: 1, y: 1, z: 1}
        - t: {x: 1.313182, y: 0.09131067, z: -1.021363}
          q: {x: 0.7071068, y: 1.132697E-07, z: 6.19032E-07, w: 0.7071067}
          s: {x: 1, y: 1, z: 1}
        - t: {x: -1.313181, y: 0.7361346, z: -1.021365}
          q: {x: 0.7071068, y: -5.400066E-07, z: -3.424421E-08, w: 0.7071067}
          s: {x: 1, y: 1, z: 1}
        - t: {x: -1.313181, y: 0.09131061, z: -1.021365}
          q: {x: 0.7071068, y: -6.216662E-07, z: -1.159037E-07, w: 0.7071067}
          s: {x: 1, y: 1, z: 1}
    m_DefaultPose:
      data:
        m_X:
        - t: {x: 0, y: 0, z: 0}
          q: {x: 0, y: 0, z: 0, w: 1}
          s: {x: 1, y: 1, z: 1}
        - t: {x: 0, y: 0, z: 0}
          q: {x: 0, y: 0, z: 0, w: 1}
          s: {x: 1, y: 1, z: 1}
        - t: {x: 0, y: 0, z: 0}
          q: {x: -0.7071068, y: 0, z: 0, w: 0.7071067}
          s: {x: 1, y: 1, z: 1}
        - t: {x: 0, y: 0, z: 0}
          q: {x: 1, y: 8.510922E-15, z: 1.947072E-07, w: -4.371139E-08}
          s: {x: 1, y: 1, z: 1}
        - t: {x: 0.001699436, y: 1.338551E-11, z: -1.432705}
          q: {x: 0, y: 0.03219121, z: 0, w: 0.9994817}
          s: {x: 0.9999999, y: 1, z: 0.9999999}
        - t: {x: -7.841736E-07, y: 8.673617E-19, z: 1.404365}
          q: {x: -0.7071068, y: -3.275172E-08, z: -3.676433E-07, w: 0.7071067}
          s: {x: 1, y: 1, z: 1}
        - t: {x: 1.313182, y: 1.167273, z: 6.9515E-07}
          q: {x: 0.7071068, y: -9.48304E-08, z: 3.266381E-07, w: 0.7071067}
          s: {x: 1, y: 1, z: 1}
        - t: {x: 0.2070967, y: 5.960463E-08, z: 0.183563}
          q: {x: 0.7042007, y: 0.09924445, z: -0.09915466, w: 0.6960031}
          s: {x: 0.9999999, y: 0.9999999, z: 0.9999999}
        - t: {x: 1.313182, y: -0.03272737, z: 6.9515E-07}
          q: {x: 0.7071068, y: -1.053668E-08, z: 4.109318E-07, w: 0.7071067}
          s: {x: 1, y: 1, z: 1}
        - t: {x: -1.313182, y: 1.167273, z: -1.016405E-06}
          q: {x: 0.7071068, y: -3.266381E-07, z: 9.483047E-08, w: 0.7071067}
          s: {x: 1, y: 1, z: 1}
        - t: {x: -0.2070966, y: 5.96046E-08, z: 0.183563}
          q: {x: 0.7046267, y: -0.09918364, z: 0.09921546, w: 0.6955717}
          s: {x: 1, y: 1, z: 1}
        - t: {x: -1.313182, y: -0.03272736, z: -1.016405E-06}
          q: {x: 0.7071068, y: -4.13566E-07, z: 7.902608E-09, w: 0.7071067}
          s: {x: 1, y: 1, z: 1}
        - t: {x: -8.307397E-07, y: 1.41673, z: 1.021363}
          q: {x: 8.78895E-16, y: -8.992806E-15, z: 7.903733E-30, w: 1}
          s: {x: 1, y: 1, z: 1}
        - t: {x: 1.313182, y: 0.7361345, z: -1.021363}
          q: {x: 0.7071068, y: 3.161014E-08, z: 5.373725E-07, w: 0.7071067}
          s: {x: 1, y: 1, z: 1}
        - t: {x: 1.313182, y: 0.09131067, z: -1.021363}
          q: {x: 0.7071068, y: 1.132697E-07, z: 6.19032E-07, w: 0.7071067}
          s: {x: 1, y: 1, z: 1}
        - t: {x: -1.313181, y: 0.7361346, z: -1.021365}
          q: {x: 0.7071068, y: -5.400066E-07, z: -3.424421E-08, w: 0.7071067}
          s: {x: 1, y: 1, z: 1}
        - t: {x: -1.313181, y: 0.09131061, z: -1.021365}
          q: {x: 0.7071068, y: -6.216662E-07, z: -1.159037E-07, w: 0.7071067}
          s: {x: 1, y: 1, z: 1}
    m_SkeletonNameIDArray: 00000000b39c853ae5693d760b231f4ef9c96e7afb439df9a01119b0b3d8f520efb652b3c32c164ad0e5fada8c8b5d49ab6c35ede1b3a503d3b9e862828eaaf9b084e798
    m_Human:
      data:
        serializedVersion: 2
        m_RootX:
          t: {x: 0, y: 0, z: 0}
          q: {x: 0, y: 0, z: 0, w: 1}
          s: {x: 1, y: 1, z: 1}
        m_Skeleton:
          data:
            m_Node:
            m_ID: 
            m_AxesArray:
        m_SkeletonPose:
          data:
            m_X:
        m_LeftHand:
          data:
            m_HandBoneIndex: ffffffffffffffffffffffffffffffffffffffffffffffffffffffffffffffffffffffffffffffffffffffffffffffffffffffffffffffffffffffff
        m_RightHand:
          data:
            m_HandBoneIndex: ffffffffffffffffffffffffffffffffffffffffffffffffffffffffffffffffffffffffffffffffffffffffffffffffffffffffffffffffffffffff
        m_Handles:
        m_ColliderArray: []
        m_HumanBoneIndex: ffffffffffffffffffffffffffffffffffffffffffffffffffffffffffffffffffffffffffffffffffffffffffffffffffffffffffffffffffffffffffffffffffffffffffffffffffffffffffffffffffffffffffffffffffffffffffffffffffffffff
        m_HumanBoneMass:
        - 0.1454546
        - 0.1212121
        - 0.1212121
        - 0.04848485
        - 0.04848485
        - 0.009696971
        - 0.009696971
        - 0.03030303
        - 0.1454546
        - 0.1454546
        - 0.01212121
        - 0.04848485
        - 0.006060607
        - 0.006060607
        - 0.02424243
        - 0.02424243
        - 0.01818182
        - 0.01818182
        - 0.006060607
        - 0.006060607
        - 0.002424243
        - 0.002424243
        - 0
        - 0
        - 0
        m_ColliderIndex: 
        m_Scale: 1
        m_ArmTwist: 0.5
        m_ForeArmTwist: 0.5
        m_UpperLegTwist: 0.5
        m_LegTwist: 0.5
        m_ArmStretch: 0.05
        m_LegStretch: 0.05
        m_FeetSpacing: 0
        m_HasLeftHand: 0
        m_HasRightHand: 0
        m_HasTDoF: 0
    m_HumanSkeletonIndexArray: 
    m_HumanSkeletonReverseIndexArray: 
    m_RootMotionBoneIndex: -1
    m_RootMotionBoneX:
      t: {x: 0, y: 0, z: 0}
      q: {x: 0, y: 0, z: 0, w: 1}
      s: {x: 1, y: 1, z: 1}
    m_RootMotionSkeleton:
      data:
        m_Node:
        m_ID: 
        m_AxesArray: []
    m_RootMotionSkeletonPose:
      data:
        m_X:
    m_RootMotionSkeletonIndexArray: 
  m_TOS:
    286218149: ChestBones/RootBone/RootBone.001/ChestMainCentre/HeadCenter/HeadUp_L
    1193163577: ChestBones/RootBone/RootBone.001/ChestMainCentre/ChestUp_R
    618465908: ChestBones/RootBone/RootBone.001/ChestMainCentre/ChestDown_R
    1369048857: ChestBones/RootBone/RootBone.001/ChestMainCentre/HeadCenter/HeadDown_L
    3738318615: ChestBones/RootBone/RootBone.001/ChestMainCentre/ChestDown_L
    1983736293: ChestBones
    629815490: ChestBones/RootBone/RootBone.001/ChestMainCentre
    3603600010: ChestBones/RootBone/RootBone.001/ChestMainCentre/ChestUp_L/Hand_L
    1173654768: ChestBones/RootBone/RootBone.001/ChestMainCentre/ChestUp_R/Hand_R
    1001844932: ChestBones/RootBone
    0: 
    981834931: Chest
    2878683770: ChestBones/RootBone/RootBone.001/ChestMainCentre/HeadCenter/HeadDown_R
    608119525: ChestBones/RootBone/RootBone.001
    3942673094: ChestBones/RootBone/RootBone.001/ChestMainCentre/HeadCenter/HeadUp_R
    3172009562: ChestBones/RootBone/RootBone.001/ChestMainCentre/ChestUp_L
    2958065598: ChestBones/RootBone/RootBone.001/ChestMainCentre/HeadCenter
