%YAML 1.1
%TAG !u! tag:unity3d.com,2011:
--- !u!90 &9000000
Avatar:
  m_ObjectHideFlags: 0
  m_PrefabParentObject: {fileID: 0}
  m_PrefabInternal: {fileID: 0}
  m_Name: "PlayerCharacterAvatar"
  m_AvatarSize: 7676
  m_Avatar:
    serializedVersion: 3
    m_AvatarSkeleton:
      data:
        m_Node:
        - m_ParentId: -1
          m_AxesId: -1
        - m_ParentId: 0
          m_AxesId: -1
        - m_ParentId: 0
          m_AxesId: -1
        - m_ParentId: 2
          m_AxesId: -1
        - m_ParentId: 3
          m_AxesId: -1
        - m_ParentId: 4
          m_AxesId: -1
        - m_ParentId: 5
          m_AxesId: -1
        - m_ParentId: 6
          m_AxesId: -1
        - m_ParentId: 7
          m_AxesId: -1
        - m_ParentId: 8
          m_AxesId: -1
        - m_ParentId: 6
          m_AxesId: -1
        - m_ParentId: 10
          m_AxesId: -1
        - m_ParentId: 11
          m_AxesId: -1
        - m_ParentId: 12
          m_AxesId: -1
        - m_ParentId: 6
          m_AxesId: -1
        - m_ParentId: 14
          m_AxesId: -1
        - m_ParentId: 15
          m_AxesId: -1
        - m_ParentId: 16
          m_AxesId: -1
        - m_ParentId: 3
          m_AxesId: -1
        - m_ParentId: 18
          m_AxesId: -1
        - m_ParentId: 19
          m_AxesId: -1
        - m_ParentId: 20
          m_AxesId: -1
        - m_ParentId: 21
          m_AxesId: -1
        - m_ParentId: 3
          m_AxesId: -1
        - m_ParentId: 23
          m_AxesId: -1
        - m_ParentId: 24
          m_AxesId: -1
        - m_ParentId: 25
          m_AxesId: -1
        - m_ParentId: 26
          m_AxesId: -1
        m_ID: 0000000034745bed7f410b2716f5ac5905d3434af9e77bb1f1d8716347d8f35c394440dd5cc6be269b4817fafe5542a1bc6885658fe511f6db770149514c20abe4c5c1f5ed8c199353f4edbfc1ba49d7d9451f302e1610ce3f6d78d4b46c083a3812d12a905dd2863d34cdbc460a127d
        m_AxesArray: []
    m_AvatarSkeletonPose:
      data:
        m_X:
        - t: {x: 0, y: 0, z: 0}
          q: {x: 0, y: 0, z: 0, w: 1}
          s: {x: 1, y: 1, z: 1}
        - t: {x: 1.44355E-08, y: -3.230526E-09, z: 3.608875E-09}
          q: {x: -0.7071068, y: 0, z: 0, w: 0.7071067}
          s: {x: 1, y: 1, z: 1}
        - t: {x: 0, y: 0, z: 0}
          q: {x: -0.7071068, y: 0, z: 0, w: 0.7071067}
          s: {x: 1, y: 1, z: 1}
        - t: {x: -1.092752E-07, y: -0.05909519, z: 0.7382163}
          q: {x: 0.7071068, y: 0, z: 0, w: 0.7071067}
          s: {x: 1, y: 1, z: 1}
        - t: {x: 0, y: 0.1197917, z: -0.01725729}
          q: {x: -0.0714772, y: 0, z: 0, w: 0.9974422}
          s: {x: 1, y: 1, z: 1}
        - t: {x: 0, y: 0.1411997, z: 1.862645E-09}
          q: {x: -4.470348E-08, y: 0, z: 0, w: 1}
          s: {x: 1, y: 1, z: 1}
        - t: {x: -1.421085E-14, y: 0.1613712, z: 1.175795E-08}
          q: {x: 7.450581E-09, y: 0, z: 0, w: 1}
          s: {x: 1, y: 0.9999999, z: 0.9999999}
        - t: {x: 0, y: 0.1815424, z: -1.862645E-09}
          q: {x: 0.07147726, y: 0, z: 0, w: 0.9974422}
          s: {x: 1, y: 0.9999999, z: 0.9999999}
        - t: {x: -1.257285E-08, y: 0.05248584, z: 0.003645783}
          q: {x: -1.536699E-08, y: 0, z: 0, w: 1}
          s: {x: 1, y: 1, z: 1}
        - t: {x: 0, y: 0.6952869, z: 0.04829629}
          q: {x: 2.672518E-09, y: 0, z: 0, w: 1}
          s: {x: 1, y: 1, z: 1}
        - t: {x: -0.09834497, y: 0.1580794, z: -0.003328968}
          q: {x: 0.545548, y: -0.4454828, z: 0.5643376, w: 0.4306338}
          s: {x: 0.9999998, y: 0.9999996, z: 0.9999999}
        - t: {x: -1.117587E-08, y: 0.2006736, z: -7.450581E-09}
          q: {x: -0.09281898, y: -0.2045064, z: 0.009726882, w: 0.9744061}
          s: {x: 1, y: 1, z: 1}
        - t: {x: -3.72529E-08, y: 0.2877346, z: -1.536682E-07}
          q: {x: -0.002642497, y: -0.006480008, z: -0.02540377, w: 0.9996528}
          s: {x: 0.9999999, y: 1, z: 1}
        - t: {x: -2.235174E-08, y: 0.2246668, z: 4.097819E-08}
          q: {x: -3.660098E-07, y: -1.266599E-07, z: -2.793968E-08, w: 1}
          s: {x: 1, y: 1, z: 1}
        - t: {x: 0.09834503, y: 0.158094, z: -0.00342908}
          q: {x: -0.5452295, y: -0.4457446, z: 0.5645841, w: -0.4304433}
          s: {x: 0.9999998, y: 1, z: 0.9999999}
        - t: {x: -7.450581E-09, y: 0.2006736, z: 4.284084E-08}
          q: {x: -0.09276623, y: 0.2006218, z: -0.01000971, w: 0.9752154}
          s: {x: 1, y: 1, z: 1}
        - t: {x: -3.539026E-08, y: 0.2876295, z: -2.197921E-07}
          q: {x: -0.002091579, y: 0.006493002, z: 0.02501534, w: 0.9996639}
          s: {x: 1, y: 1, z: 1}
        - t: {x: 2.235174E-08, y: 0.2246369, z: 9.778887E-08}
          q: {x: -5.229376E-07, y: -7.385387E-07, z: -2.514571E-07, w: 1}
          s: {x: 1, y: 1, z: 1}
        - t: {x: -0.1738155, y: -0.06667422, z: -0.01104354}
          q: {x: -0.003460322, y: 0.03783843, z: 0.9951252, w: 0.09100664}
          s: {x: 1.000001, y: 1, z: 1}
        - t: {x: -1.903391E-08, y: 0.2839548, z: 6.465164E-09}
          q: {x: -0.1043737, y: -0.00277262, z: 0.02641936, w: 0.9941833}
          s: {x: 1, y: 1, z: 1}
        - t: {x: -1.146691E-08, y: 0.2414013, z: 9.313226E-10}
          q: {x: 0.4654995, y: -0.04986224, z: 0.02627918, w: 0.8832516}
          s: {x: 1, y: 1, z: 1}
        - t: {x: -5.942275E-08, y: 0.229576, z: -3.317837E-09}
          q: {x: 0.3639863, y: -0.01375123, z: 0.005374329, w: 0.9312873}
          s: {x: 1, y: 0.9999999, z: 1}
        - t: {x: -1.665467E-08, y: 0.1076524, z: 9.487849E-09}
          q: {x: -1.396984E-09, y: 1.411536E-08, z: 4.554749E-09, w: 1}
          s: {x: 1, y: 1, z: 0.9999999}
        - t: {x: 0.1738156, y: -0.06667422, z: -0.01180833}
          q: {x: 0.00347044, y: 0.03794709, z: 0.9951211, w: -0.09100536}
          s: {x: 1.000002, y: 1, z: 1}
        - t: {x: 1.920853E-09, y: 0.2839594, z: 8.9764E-09}
          q: {x: -0.1059454, y: 0.002814404, z: -0.0263965, w: 0.9940175}
          s: {x: 1, y: 0.9999999, z: 0.9999999}
        - t: {x: -7.566996E-10, y: 0.2414948, z: -5.122274E-09}
          q: {x: 0.472321, y: 0.0485735, z: -0.02607963, w: 0.8797008}
          s: {x: 0.9999999, y: 0.9999999, z: 0.9999998}
        - t: {x: -5.09317E-10, y: 0.2328335, z: -1.495937E-08}
          q: {x: 0.3581803, y: 0.01578264, z: -0.006054903, w: 0.9334995}
          s: {x: 0.9999999, y: 0.9999999, z: 0.9999999}
        - t: {x: -3.942478E-08, y: 0.1075845, z: 2.025627E-08}
          q: {x: 1.536682E-08, y: -5.618494E-07, z: -1.593435E-08, w: 1}
          s: {x: 1, y: 0.9999999, z: 0.9999999}
    m_DefaultPose:
      data:
        m_X:
        - t: {x: 0, y: 0, z: 0}
          q: {x: 0, y: 0, z: 0, w: 1}
          s: {x: 1, y: 1, z: 1}
        - t: {x: 9.778887E-09, y: 1.222363E-09, z: 1.469743E-08}
          q: {x: 0, y: 0, z: 0, w: 1}
          s: {x: 1, y: 1, z: 1}
        - t: {x: 0, y: 0, z: 0}
          q: {x: -0.7071068, y: 0, z: 0, w: 0.7071067}
          s: {x: 1, y: 1, z: 1}
        - t: {x: -1.092752E-07, y: -0.05909507, z: 0.7382163}
          q: {x: 0.7071068, y: 0, z: 0, w: 0.7071067}
          s: {x: 1, y: 1, z: 1}
        - t: {x: 0, y: 0.1197917, z: -0.01725729}
          q: {x: -0.07147719, y: 0, z: 0, w: 0.9974422}
          s: {x: 1, y: 1, z: 1}
        - t: {x: 0, y: 0.1411996, z: -3.72529E-09}
          q: {x: 1.862645E-08, y: 0, z: 0, w: 1}
          s: {x: 1, y: 0.9999999, z: 1}
        - t: {x: -1.421085E-14, y: 0.1613713, z: 1.478475E-08}
          q: {x: -4.470348E-08, y: 0, z: 0, w: 1}
          s: {x: 1, y: 1, z: 1}
        - t: {x: -7.105427E-15, y: 0.1815423, z: 3.72529E-09}
          q: {x: 0.07147726, y: 0, z: 0, w: 0.9974422}
          s: {x: 1, y: 0.9999997, z: 0.9999999}
        - t: {x: -2.235173E-08, y: 0.05248582, z: 0.003645842}
          q: {x: -7.410251E-09, y: 0, z: 0, w: 1}
          s: {x: 1, y: 1, z: 0.9999999}
        - t: {x: 0, y: 0.695287, z: 0.04829629}
          q: {x: 2.672512E-09, y: 0, z: 0, w: 1}
          s: {x: 1, y: 1, z: 1}
        - t: {x: -0.09834503, y: 0.1580796, z: -0.003328998}
          q: {x: 0.5455465, y: -0.4454834, z: 0.5643376, w: 0.4306352}
          s: {x: 0.9999997, y: 0.9999996, z: 0.9999998}
        - t: {x: -1.862645E-08, y: 0.2006736, z: -1.024455E-08}
          q: {x: 0.2413139, y: -0.1923114, z: 0.04885272, w: 0.949946}
          s: {x: 0.9999998, y: 0.9999999, z: 0.9999999}
        - t: {x: 3.72529E-09, y: 0.2877348, z: -1.052395E-07}
          q: {x: 0.07246027, y: -0.008571432, z: -0.1171586, w: 0.9904292}
          s: {x: 1, y: 1, z: 0.9999999}
        - t: {x: -5.215406E-08, y: 0.2246669, z: 1.47149E-07}
          q: {x: -3.967434E-07, y: -1.061708E-07, z: -2.421439E-08, w: 1}
          s: {x: 0.9999999, y: 1, z: 1}
        - t: {x: 0.09834503, y: 0.1580941, z: -0.003429068}
          q: {x: -0.5452285, y: -0.4457442, z: 0.5645847, w: -0.4304442}
          s: {x: 0.9999998, y: 0.9999999, z: 0.9999999}
        - t: {x: -9.313226E-09, y: 0.2006736, z: 1.396984E-09}
          q: {x: 0.2410667, y: 0.1885802, z: -0.04781234, w: 0.9508094}
          s: {x: 1, y: 0.9999999, z: 0.9999999}
        - t: {x: -1.862645E-09, y: 0.2876294, z: 3.445894E-08}
          q: {x: 0.07387701, y: 0.008522489, z: 0.1142721, w: 0.9906622}
          s: {x: 1, y: 1, z: 1}
        - t: {x: 3.352761E-08, y: 0.224637, z: 6.146729E-08}
          q: {x: 4.144386E-08, y: -1.298264E-06, z: -2.384186E-07, w: 1}
          s: {x: 0.9999998, y: 0.9999998, z: 0.9999999}
        - t: {x: -0.1738156, y: -0.06667423, z: -0.01104354}
          q: {x: -0.003459362, y: 0.03782939, z: 0.9951255, w: 0.09100668}
          s: {x: 0.9999961, y: 0.9999999, z: 0.9999995}
        - t: {x: -1.874287E-08, y: 0.2839549, z: 4.661842E-09}
          q: {x: -0.1043737, y: -0.00277178, z: 0.02641942, w: 0.9941833}
          s: {x: 0.9999999, y: 0.9999999, z: 0.9999998}
        - t: {x: 3.870809E-09, y: 0.2414012, z: 3.72529E-09}
          q: {x: 0.4654998, y: -0.04986249, z: 0.02628014, w: 0.8832514}
          s: {x: 1, y: 1, z: 1}
        - t: {x: -1.169974E-08, y: 0.2295761, z: -2.229353E-08}
          q: {x: 0.3639862, y: -0.01375147, z: 0.005375023, w: 0.9312873}
          s: {x: 1, y: 0.9999999, z: 1}
        - t: {x: -3.55576E-08, y: 0.1076525, z: 1.196167E-08}
          q: {x: 2.211891E-08, y: -6.813207E-08, z: 6.286429E-09, w: 1}
          s: {x: 1, y: 0.9999998, z: 1}
        - t: {x: 0.1738156, y: -0.06667423, z: -0.01180833}
          q: {x: 0.00357415, y: 0.03794081, z: 0.9953663, w: -0.08828174}
          s: {x: 1.000002, y: 1, z: 1}
        - t: {x: -1.001172E-08, y: 0.2839594, z: -7.99588E-10}
          q: {x: -0.1059454, y: 0.002814532, z: -0.02639645, w: 0.9940176}
          s: {x: 0.9999998, y: 1, z: 1}
        - t: {x: -2.945308E-08, y: 0.2414947, z: 7.916242E-09}
          q: {x: 0.4723209, y: 0.04857261, z: -0.02607993, w: 0.8797008}
          s: {x: 1, y: 0.9999999, z: 0.9999998}
        - t: {x: -1.517765E-08, y: 0.2328334, z: 2.264278E-08}
          q: {x: 0.3581804, y: 0.01578357, z: -0.006054961, w: 0.9334993}
          s: {x: 0.9999999, y: 0.9999997, z: 0.9999999}
        - t: {x: -4.986941E-08, y: 0.1075844, z: 1.623994E-08}
          q: {x: 4.365575E-09, y: -6.616175E-07, z: -2.128946E-08, w: 1}
          s: {x: 0.9999995, y: 0.9999999, z: 0.9999998}
    m_SkeletonNameIDArray: 0000000034745bed7f410b2757f08b86987fe9ccbe1dc47d044ccde42b8f79d8e4af9b5fe7d40534ba0b6c602105cc56e070b311f797a79cc61cf205bc936141b8ca7d3f98d50e12581b9670fafb42bbebec4a7281de5a2175e30634d3ce15ad676defac84aee3fcd964940f2d59c81a
    m_Human:
      data:
        serializedVersion: 2
        m_RootX:
          t: {x: 0.002608167, y: 0.8575381, z: 0.02272546}
          q: {x: -0.06255171, y: 0.000565919, z: -3.544377E-05, w: 0.9980416}
          s: {x: 1, y: 1, z: 1}
        m_Skeleton:
          data:
            m_Node:
            - m_ParentId: -1
              m_AxesId: -1
            - m_ParentId: 0
              m_AxesId: 0
            - m_ParentId: 1
              m_AxesId: 1
            - m_ParentId: 2
              m_AxesId: 2
            - m_ParentId: 3
              m_AxesId: 3
            - m_ParentId: 4
              m_AxesId: 4
            - m_ParentId: 5
              m_AxesId: 5
            - m_ParentId: 4
              m_AxesId: 6
            - m_ParentId: 7
              m_AxesId: 7
            - m_ParentId: 8
              m_AxesId: 8
            - m_ParentId: 9
              m_AxesId: 9
            - m_ParentId: 4
              m_AxesId: 10
            - m_ParentId: 11
              m_AxesId: 11
            - m_ParentId: 12
              m_AxesId: 12
            - m_ParentId: 13
              m_AxesId: 13
            - m_ParentId: 1
              m_AxesId: 14
            - m_ParentId: 15
              m_AxesId: 15
            - m_ParentId: 16
              m_AxesId: 16
            - m_ParentId: 17
              m_AxesId: 17
            - m_ParentId: 1
              m_AxesId: 18
            - m_ParentId: 19
              m_AxesId: 19
            - m_ParentId: 20
              m_AxesId: 20
            - m_ParentId: 21
              m_AxesId: 21
            m_ID: 7f410b2716f5ac5905d3434af9e77bb1f1d8716347d8f35c394440dd9b4817fafe5542a1bc6885658fe511f6db770149514c20abe4c5c1f5ed8c199353f4edbfc1ba49d7d9451f302e1610ceb46c083a3812d12a905dd2863d34cdbc
            m_AxesArray:
            - m_PreQ: {x: 0.5344597, y: 0.4629825, z: -0.5344598, w: -0.4629825}
              m_PostQ: {x: 0.5344597, y: 0.4629825, z: -0.5344598, w: -0.4629825}
              m_Sgn: {x: 1, y: 1, z: 1}
              m_Limit:
                m_Min: {x: -0.6981317, y: -0.6981317, z: -0.6981317}
                m_Max: {x: 0.6981317, y: 0.6981317, z: 0.6981317}
              m_Length: 0.1210283
              m_Type: 1
            - m_PreQ: {x: 0.5344597, y: 0.4629825, z: -0.5344597, w: -0.4629825}
              m_PostQ: {x: 0.5, y: 0.5, z: -0.5, w: -0.5}
              m_Sgn: {x: 1, y: 1, z: 1}
              m_Limit:
                m_Min: {x: -0.6981317, y: -0.6981317, z: -0.6981317}
                m_Max: {x: 0.6981317, y: 0.6981317, z: 0.6981317}
              m_Length: 0.1411997
              m_Type: 1
            - m_PreQ: {x: -0.5000001, y: -0.4999999, z: 0.5, w: 0.4999999}
              m_PostQ: {x: -0.5, y: -0.5, z: 0.4999999, w: 0.5}
              m_Sgn: {x: 1, y: 1, z: 1}
              m_Limit:
                m_Min: {x: -0.6981317, y: -0.6981317, z: -0.6981317}
                m_Max: {x: 0.6981317, y: 0.6981317, z: 0.6981317}
              m_Length: 0.1613712
              m_Type: 1
            - m_PreQ: {x: 0.5, y: 0.5, z: -0.5, w: -0.5}
              m_PostQ: {x: 0.5, y: 0.5, z: -0.5, w: -0.5}
              m_Sgn: {x: 1, y: 1, z: 1}
              m_Limit:
                m_Min: {x: -0.3490658, y: -0.3490658, z: -0.3490658}
                m_Max: {x: 0.3490658, y: 0.3490658, z: 0.3490658}
              m_Length: 0.1815424
              m_Type: 1
            - m_PreQ: {x: 0.4441752, y: 0.5501894, z: -0.4441753, w: -0.5501893}
              m_PostQ: {x: 0.4823652, y: 0.5170337, z: -0.4823653, w: -0.5170336}
              m_Sgn: {x: 1, y: 1, z: 1}
              m_Limit:
                m_Min: {x: -0.6981317, y: -0.6981317, z: -0.6981317}
                m_Max: {x: 0.6981317, y: 0.6981317, z: 0.6981317}
              m_Length: 0.05261229
              m_Type: 1
            - m_PreQ: {x: -0.5, y: -0.5, z: 0.5, w: 0.5}
              m_PostQ: {x: -0.5, y: -0.5, z: 0.5, w: 0.5}
              m_Sgn: {x: 1, y: 1, z: 1}
              m_Limit:
                m_Min: {x: -0.6981317, y: -0.6981317, z: -0.6981317}
                m_Max: {x: 0.6981317, y: 0.6981317, z: 0.6981317}
              m_Length: 0.05261229
              m_Type: 1
            - m_PreQ: {x: -0.008191522, y: -0.07094749, z: 0.9904653, w: -0.1178041}
              m_PostQ: {x: 0.4619372, y: 0.4619371, z: 0.5353636, w: 0.5353634}
              m_Sgn: {x: 1, y: 1, z: -1}
              m_Limit:
                m_Min: {x: 0, y: -0.2617994, z: -0.2617994}
                m_Max: {x: 0, y: 0.2617994, z: 0.5235988}
              m_Length: 0.2006735
              m_Type: 1
            - m_PreQ: {x: 0.6552524, y: 0.1741213, z: 0.5407213, w: 0.4979427}
              m_PostQ: {x: 0.5621986, y: 0.5621991, z: 0.4288734, w: 0.4288737}
              m_Sgn: {x: 1, y: 1, z: -1}
              m_Limit:
                m_Min: {x: -1.570796, y: -1.745329, z: -1.047198}
                m_Max: {x: 1.570796, y: 1.745329, z: 1.745329}
              m_Length: 0.2877346
              m_Type: 1
            - m_PreQ: {x: 0.9921426, y: 0.06527816, z: -0.1057399, w: 0.01452628}
              m_PostQ: {x: 0.7002836, y: 0.7002838, z: -0.09799384, w: -0.09799393}
              m_Sgn: {x: 1, y: 1, z: -1}
              m_Limit:
                m_Min: {x: -1.570796, y: 0, z: -1.396263}
                m_Max: {x: 1.570796, y: 0, z: 1.396263}
              m_Length: 0.2246667
              m_Type: 1
            - m_PreQ: {x: 0.564999, y: 0.5649991, z: 0.4251778, w: 0.4251776}
              m_PostQ: {x: 0.5649992, y: 0.564999, z: 0.4251779, w: 0.4251773}
              m_Sgn: {x: 1, y: 1, z: -1}
              m_Limit:
                m_Min: {x: 0, y: -0.6981317, z: -1.396263}
                m_Max: {x: 0, y: 0.6981317, z: 1.396263}
              m_Length: 0.05616668
              m_Type: 1
            - m_PreQ: {x: 0.07100677, y: 0.008690295, z: -0.117771, w: 0.9904608}
              m_PostQ: {x: 0.4618746, y: 0.4618748, z: -0.5354174, w: -0.5354174}
              m_Sgn: {x: 1, y: 1, z: 1}
              m_Limit:
                m_Min: {x: 0, y: -0.2617994, z: -0.2617994}
                m_Max: {x: 0, y: 0.2617994, z: 0.5235988}
              m_Length: 0.2006737
              m_Type: 1
            - m_PreQ: {x: 0.1742437, y: 0.6546879, z: -0.4979519, w: -0.5413567}
              m_PostQ: {x: 0.5605024, y: 0.5605022, z: -0.4310887, w: -0.4310881}
              m_Sgn: {x: -1, y: 1, z: 1}
              m_Limit:
                m_Min: {x: -1.570796, y: -1.745329, z: -1.047198}
                m_Max: {x: 1.570796, y: 1.745329, z: 1.745329}
              m_Length: 0.2876296
              m_Type: 1
            - m_PreQ: {x: 0.06571403, y: 0.9925427, z: -0.01473816, w: 0.1016064}
              m_PostQ: {x: 0.7006564, y: 0.7006562, z: 0.09529334, w: 0.09529273}
              m_Sgn: {x: -1, y: 1, z: 1}
              m_Limit:
                m_Min: {x: -1.570796, y: 0, z: -1.396263}
                m_Max: {x: 1.570796, y: 0, z: 1.396263}
              m_Length: 0.2246371
              m_Type: 1
            - m_PreQ: {x: 0.5633187, y: 0.563319, z: -0.4274012, w: -0.4274016}
              m_PostQ: {x: 0.563318, y: 0.5633191, z: -0.4274014, w: -0.4274022}
              m_Sgn: {x: 1, y: 1, z: 1}
              m_Limit:
                m_Min: {x: 0, y: -0.6981317, z: -1.396263}
                m_Max: {x: 0, y: 0.6981317, z: 1.396263}
              m_Length: 0.05615927
              m_Type: 1
            - m_PreQ: {x: 0.5658259, y: -0.3586831, z: 0.6797356, w: -0.2985753}
              m_PostQ: {x: -0.5, y: -0.4999999, z: 0.5000001, w: 0.5000001}
              m_Sgn: {x: 1, y: 1, z: 1}
              m_Limit:
                m_Min: {x: -1.047198, y: -1.047198, z: -1.570796}
                m_Max: {x: 1.047198, y: 1.047198, z: 0.8726646}
              m_Length: 0.2839549
              m_Type: 1
            - m_PreQ: {x: 0.7482141, y: 0.05639198, z: -0.6569311, w: 0.07373841}
              m_PostQ: {x: 0.506702, y: 0.506702, z: -0.4932069, w: -0.4932069}
              m_Sgn: {x: 1, y: 1, z: -1}
              m_Limit:
                m_Min: {x: -1.570796, y: 0, z: -1.396263}
                m_Max: {x: 1.570796, y: 0, z: 1.396263}
              m_Length: 0.2414013
              m_Type: 1
            - m_PreQ: {x: 0.4372711, y: 0.5676091, z: -0.4920215, w: -0.4944985}
              m_PostQ: {x: 0.6067923, y: 0.236158, z: -0.7076089, w: -0.2744493}
              m_Sgn: {x: 1, y: 1, z: 1}
              m_Limit:
                m_Min: {x: 0, y: -0.5235988, z: -0.8726646}
                m_Max: {x: 0, y: 0.5235988, z: 0.8726646}
              m_Length: 0.1558049
              m_Type: 1
            - m_PreQ: {x: -0.262078, y: -0.5960558, z: 0.30629, w: 0.6944199}
              m_PostQ: {x: -0.4958208, y: -0.4326562, z: 0.502072, w: 0.5611542}
              m_Sgn: {x: 1, y: 1, z: 1}
              m_Limit:
                m_Min: {x: 0, y: 0, z: -0.8726646}
                m_Max: {x: 0, y: 0, z: 0.8726646}
              m_Length: 0.05739401
              m_Type: 1
            - m_PreQ: {x: 0.6797742, y: -0.2985137, z: 0.5658591, w: -0.3586086}
              m_PostQ: {x: -0.5, y: -0.5, z: 0.5000001, w: 0.5000001}
              m_Sgn: {x: -1, y: -1, z: 1}
              m_Limit:
                m_Min: {x: -1.047198, y: -1.047198, z: -1.570796}
                m_Max: {x: 1.047198, y: 1.047198, z: 0.8726646}
              m_Length: 0.2839594
              m_Type: 1
            - m_PreQ: {x: 0.6568213, y: -0.07492807, z: -0.748271, w: -0.05533844}
              m_PostQ: {x: 0.4931042, y: 0.4931042, z: -0.506802, w: -0.506802}
              m_Sgn: {x: -1, y: 1, z: -1}
              m_Limit:
                m_Min: {x: -1.570796, y: 0, z: -1.396263}
                m_Max: {x: 1.570796, y: 0, z: 1.396263}
              m_Length: 0.2414948
              m_Type: 1
            - m_PreQ: {x: 0.4911853, y: 0.4951259, z: -0.4365419, w: -0.5683472}
              m_PostQ: {x: 0.70883, y: 0.2697913, z: -0.6088483, w: -0.2325435}
              m_Sgn: {x: 1, y: -1, z: 1}
              m_Limit:
                m_Min: {x: 0, y: -0.5235988, z: -0.8726646}
                m_Max: {x: 0, y: 0.5235988, z: 0.8726646}
              m_Length: 0.1558083
              m_Type: 1
            - m_PreQ: {x: -0.3104472, y: -0.6919897, z: 0.2660877, w: 0.5949538}
              m_PostQ: {x: -0.5029127, y: -0.5619344, z: 0.4949525, w: 0.4316604}
              m_Sgn: {x: 1, y: 1, z: 1}
              m_Limit:
                m_Min: {x: 0, y: 0, z: -0.8726646}
                m_Max: {x: 0, y: 0, z: 0.8726646}
              m_Length: 0.05820837
              m_Type: 1
        m_SkeletonPose:
          data:
            m_X:
            - t: {x: 0, y: 0, z: 0}
              q: {x: 0, y: 0, z: 0, w: 1}
              s: {x: 1, y: 1, z: 1}
            - t: {x: -1.092752E-07, y: 0.7382163, z: 0.05909514}
              q: {x: 0, y: 0, z: 0, w: 1}
              s: {x: 1, y: 1, z: 1}
            - t: {x: 0, y: 0.1197917, z: -0.01725729}
              q: {x: -0.0714772, y: 0, z: 0, w: 0.9974422}
              s: {x: 1, y: 1, z: 1}
            - t: {x: 0, y: 0.1411997, z: 1.862645E-09}
              q: {x: -4.470348E-08, y: 0, z: 0, w: 1}
              s: {x: 1, y: 1, z: 1}
            - t: {x: -1.421085E-14, y: 0.1613711, z: 1.862645E-09}
              q: {x: 7.450581E-09, y: 0, z: 0, w: 1}
              s: {x: 1, y: 0.9999999, z: 0.9999999}
            - t: {x: 0, y: 0.1815424, z: -3.72529E-09}
              q: {x: 0.07147726, y: 0, z: 0, w: 0.9974422}
              s: {x: 1, y: 0.9999999, z: 0.9999999}
            - t: {x: -1.257285E-08, y: 0.05248583, z: 0.003645783}
              q: {x: -1.536699E-08, y: 0, z: 0, w: 1}
              s: {x: 1, y: 1, z: 1}
            - t: {x: -0.09834497, y: 0.1580795, z: -0.003328966}
              q: {x: 0.545548, y: -0.4454829, z: 0.5643376, w: 0.4306338}
              s: {x: 0.9999998, y: 0.9999996, z: 0.9999999}
            - t: {x: -6.053598E-09, y: 0.2006736, z: 5.215407E-08}
              q: {x: -0.09281899, y: -0.2045065, z: 0.009726882, w: 0.9744061}
              s: {x: 1, y: 1, z: 1}
            - t: {x: -4.656614E-09, y: 0.2877347, z: -1.899898E-07}
              q: {x: -0.002642483, y: -0.006479979, z: -0.02540377, w: 0.9996529}
              s: {x: 0.9999999, y: 1, z: 1}
            - t: {x: -4.656615E-09, y: 0.2246668, z: 1.676381E-08}
              q: {x: -3.278255E-07, y: -1.490116E-07, z: -8.940697E-08, w: 1}
              s: {x: 1, y: 1, z: 1}
            - t: {x: 0.09834503, y: 0.158094, z: -0.003429085}
              q: {x: -0.5452295, y: -0.4457446, z: 0.5645841, w: -0.4304433}
              s: {x: 0.9999998, y: 1, z: 0.9999999}
            - t: {x: -4.842878E-08, y: 0.2006737, z: 3.352762E-08}
              q: {x: -0.09276623, y: 0.2006218, z: -0.01000974, w: 0.9752156}
              s: {x: 1, y: 1, z: 1}
            - t: {x: -7.636847E-08, y: 0.2876296, z: -2.272427E-07}
              q: {x: -0.002091572, y: 0.006493032, z: 0.02501532, w: 0.999664}
              s: {x: 1, y: 1, z: 1}
            - t: {x: -7.823112E-08, y: 0.2246371, z: 1.788139E-07}
              q: {x: -5.066395E-07, y: -7.152557E-07, z: -2.682209E-07, w: 1}
              s: {x: 1, y: 1, z: 1}
            - t: {x: -0.1738155, y: -0.06667423, z: -0.01104354}
              q: {x: -0.003460322, y: 0.03783843, z: 0.9951252, w: 0.09100664}
              s: {x: 1.000001, y: 1, z: 1}
            - t: {x: -1.862643E-08, y: 0.2839549, z: 0}
              q: {x: -0.1043737, y: -0.002772621, z: 0.02641936, w: 0.9941834}
              s: {x: 1, y: 1, z: 1}
            - t: {x: -1.862643E-08, y: 0.2414014, z: 3.725289E-09}
              q: {x: 0.4654996, y: -0.04986225, z: 0.02627919, w: 0.8832517}
              s: {x: 1, y: 1, z: 1}
            - t: {x: -4.761382E-08, y: 0.2295761, z: -4.470347E-08}
              q: {x: 0.3639864, y: -0.01375123, z: 0.005374327, w: 0.9312874}
              s: {x: 1, y: 0.9999999, z: 1}
            - t: {x: 0.1738156, y: -0.06667423, z: -0.01180832}
              q: {x: 0.00347044, y: 0.03794709, z: 0.9951211, w: -0.09100536}
              s: {x: 1.000002, y: 1, z: 1}
            - t: {x: -3.725283E-09, y: 0.2839595, z: 7.450578E-09}
              q: {x: -0.1059454, y: 0.002814405, z: -0.02639651, w: 0.9940176}
              s: {x: 1, y: 0.9999999, z: 0.9999999}
            - t: {x: 0, y: 0.2414948, z: 0}
              q: {x: 0.472321, y: 0.0485735, z: -0.02607964, w: 0.8797008}
              s: {x: 0.9999999, y: 0.9999999, z: 0.9999998}
            - t: {x: 8.149058E-09, y: 0.2328336, z: -7.450581E-08}
              q: {x: 0.3581804, y: 0.01578264, z: -0.006054901, w: 0.9334996}
              s: {x: 0.9999999, y: 0.9999999, z: 0.9999999}
        m_LeftHand:
          data:
            m_HandBoneIndex: ffffffffffffffffffffffffffffffffffffffffffffffffffffffffffffffffffffffffffffffffffffffffffffffffffffffffffffffffffffffff
        m_RightHand:
          data:
            m_HandBoneIndex: ffffffffffffffffffffffffffffffffffffffffffffffffffffffffffffffffffffffffffffffffffffffffffffffffffffffffffffffffffffffff
        m_Handles:
        m_ColliderArray: []
        m_HumanBoneIndex: 010000000f00000013000000100000001400000011000000150000000200000003000000040000000500000006000000070000000b000000080000000c000000090000000d0000000a0000000e0000001200000016000000ffffffffffffffffffffffff
        m_HumanBoneMass:
        - 0.1454546
        - 0.1212121
        - 0.1212121
        - 0.04848485
        - 0.04848485
        - 0.009696971
        - 0.009696971
        - 0.03030303
        - 0.1454546
        - 0.1454546
        - 0.01212121
        - 0.04848485
        - 0.006060607
        - 0.006060607
        - 0.02424243
        - 0.02424243
        - 0.01818182
        - 0.01818182
        - 0.006060607
        - 0.006060607
        - 0.002424243
        - 0.002424243
        - 0
        - 0
        - 0
        m_ColliderIndex: 
        m_Scale: 0.8575381
        m_ArmTwist: 0.5
        m_ForeArmTwist: 0.5
        m_UpperLegTwist: 0.5
        m_LegTwist: 0.5
        m_ArmStretch: 0.05
        m_LegStretch: 0.05
        m_FeetSpacing: 0
        m_HasLeftHand: 0
        m_HasRightHand: 0
        m_HasTDoF: 0
    m_HumanSkeletonIndexArray: 020000000300000004000000050000000600000007000000080000000a0000000b0000000c0000000d0000000e0000000f0000001000000011000000120000001300000014000000150000001700000018000000190000001a000000
    m_HumanSkeletonReverseIndexArray: ffffffffffffffff00000000010000000200000003000000040000000500000006000000ffffffff0700000008000000090000000a0000000b0000000c0000000d0000000e0000000f000000100000001100000012000000ffffffff13000000140000001500000016000000ffffffff
    m_RootMotionBoneIndex: -1
    m_RootMotionBoneX:
      t: {x: 0, y: 0, z: 0}
      q: {x: 0, y: 0, z: 0, w: 1}
      s: {x: 1, y: 1, z: 1}
    m_RootMotionSkeleton:
      data:
        m_Node:
        m_ID: 
        m_AxesArray: []
    m_RootMotionSkeletonPose:
      data:
        m_X:
    m_RootMotionSkeletonIndexArray: 
  m_TOS:
    2261933456: Sitting/mixamorig:Hips/mixamorig:RightUpLeg/mixamorig:RightLeg/mixamorig:RightFoot
    3611933377: Sitting/mixamorig:Hips/mixamorig:LeftUpLeg/mixamorig:LeftLeg
    650036828: Sitting/mixamorig:Hips/mixamorig:Spine/mixamorig:Spine1/mixamorig:Spine2/mixamorig:Neck/mixamorig:Head/mixamorig:HeadTop_End
    1703241916: Sitting/mixamorig:Hips/mixamorig:Spine/mixamorig:Spine1/mixamorig:Spine2/mixamorig:LeftShoulder/mixamorig:LeftArm/mixamorig:LeftForeArm
    4195829915: Sitting/mixamorig:Hips/mixamorig:Spine/mixamorig:Spine1/mixamorig:Spine2/mixamorig:LeftShoulder
    2467925229: Sitting/mixamorig:Hips/mixamorig:Spine/mixamorig:Spine1/mixamorig:Spine2/mixamorig:RightShoulder/mixamorig:RightArm/mixamorig:RightForeArm/mixamorig:RightHand
    3982193716: Hero_1
    3167564861: Sitting/mixamorig:Hips/mixamorig:RightUpLeg/mixamorig:RightLeg/mixamorig:RightFoot/mixamorig:RightToeBase
    2705479166: Sitting/mixamorig:Hips/mixamorig:Spine/mixamorig:Spine1/mixamorig:Spine2/mixamorig:LeftShoulder/mixamorig:LeftArm
    3564662079: Sitting/mixamorig:Hips/mixamorig:LeftUpLeg/mixamorig:LeftLeg/mixamorig:LeftFoot/mixamorig:LeftToeBase/mixamorig:LeftToe_End
    2098334278: Sitting/mixamorig:Hips/mixamorig:RightUpLeg/mixamorig:RightLeg/mixamorig:RightFoot/mixamorig:RightToeBase/mixamorig:RightToe_End
    1504507158: Sitting/mixamorig:Hips
    4128368015: Sitting/mixamorig:Hips/mixamorig:Spine/mixamorig:Spine1/mixamorig:Spine2/mixamorig:LeftShoulder/mixamorig:LeftArm/mixamorig:LeftForeArm/mixamorig:LeftHand
    3711976505: Sitting/mixamorig:Hips/mixamorig:Spine/mixamorig:Spine1/mixamorig:Spine2/mixamorig:Neck/mixamorig:Head
    4123117028: Sitting/mixamorig:Hips/mixamorig:Spine/mixamorig:Spine1/mixamorig:Spine2/mixamorig:RightShoulder/mixamorig:RightArm/mixamorig:RightForeArm
    3220042835: Sitting/mixamorig:Hips/mixamorig:LeftUpLeg
    718344760: Sitting/mixamorig:Hips/mixamorig:RightUpLeg/mixamorig:RightLeg
    0: 
    807355865: Sitting/mixamorig:Hips/mixamorig:LeftUpLeg/mixamorig:LeftLeg/mixamorig:LeftFoot
    973630644: Sitting/mixamorig:Hips/mixamorig:RightUpLeg
    1224832987: Sitting/mixamorig:Hips/mixamorig:Spine/mixamorig:Spine1/mixamorig:Spine2/mixamorig:RightShoulder
    1559484487: Sitting/mixamorig:Hips/mixamorig:Spine/mixamorig:Spine1/mixamorig:Spine2/mixamorig:Neck
    2871020625: Sitting/mixamorig:Hips/mixamorig:Spine/mixamorig:Spine1/mixamorig:Spine2/mixamorig:RightShoulder/mixamorig:RightArm
    655049087: Sitting
    1245958917: Sitting/mixamorig:Hips/mixamorig:Spine
    3457160750: Sitting/mixamorig:Hips/mixamorig:LeftUpLeg/mixamorig:LeftLeg/mixamorig:LeftFoot/mixamorig:LeftToeBase
    1668405489: Sitting/mixamorig:Hips/mixamorig:Spine/mixamorig:Spine1/mixamorig:Spine2
    2977687545: Sitting/mixamorig:Hips/mixamorig:Spine/mixamorig:Spine1
